6 Uso de archivos de datos | Introducción a la Programación
…
Ejercicio: agregar nuevas columnas en las que se muestre:

Crear una nueva variable llamada puntos que indique cuál es el puntaje total obtenido por cada selección a lo largo del tiempo, teniendo en cuenta que cada partido ganado aporta 3 puntos, cada partido empatado aporta 1 punto y cada partido perdido aporta 0 puntos.

Crear una nueva variable llamada dg, diferencia de goles, definida como la resta entre los goles a favor y los goles en contra.

Tip: en mutate() podemos poner muchas modificaciones juntas, separándolas con coma.

6.3.2 Renombrar atributos

Para cambiar los nombres de una o más variables usamos la función rename(), listando los cambios con la estructura nombre_nuevo = nombre_viejo. Por ejemplo:

datos

# A tibble: 80 × 13
   seleccion    continente participaciones    pg    pe    pp    gf    gc titulos
   <chr>        <chr>                <dbl> <dbl> <dbl> <dbl> <dbl> <dbl>   <dbl>
 1 Brasil       América                 22    76    19    19   237   108       5
 2 Alemania     Europa                  20    68    21    23   232   130       4
 3 Argentina    América                 18    47    17    24   152   101       3
 4 Italia       Europa                  18    45    21    17   128    77       4
 5 Francia      Europa                  16    39    14    20   136    85       2
 6 Inglaterra   Europa                  16    32    22    20   104    68       1
 7 España       Europa                  16    31    17    19   108    75       1
 8 Países Bajos Europa                  11    30    14    11    96    52       0
 9 Uruguay      América                 14    25    13    21    89    76       2
10 Bélgica      Europa                  14    21    10    20    69    74       0
# ℹ 70 more rows
# ℹ 4 more variables: pj <dbl>, campeon <chr>, puntos <dbl>, dg <dbl>

datos <- rename(datos, goles_favor = gf, goles_contra = gc)
datos

# A tibble: 80 × 13
   seleccion    continente participaciones    pg    pe    pp goles_favor
   <chr>        <chr>                <dbl> <dbl> <dbl> <dbl>       <dbl>
 1 Brasil       América                 22    76    19    19         237
 2 Alemania     Europa                  20    68    21    23         232
 3 Argentina    América                 18    47    17    24         152
 4 Italia       Europa                  18    45    21    17         128
 5 Francia      Europa                  16    39    14    20         136
 6 Inglaterra   Europa                  16    32    22    20         104
 7 España       Europa                  16    31    17    19         108
 8 Países Bajos Europa                  11    30    14    11          96
 9 Uruguay      América                 14    25    13    21          89
10 Bélgica      Europa                  14    21    10    20          69
# ℹ 70 more rows
# ℹ 6 more variables: goles_contra <dbl>, titulos <dbl>, pj <dbl>,
#   campeon <chr>, puntos <dbl>, dg <dbl>

6.3.3 Unir o separar columnas

En ocasiones puede ser necesario generar una nueva variable “pegando” o uniendo los datos presentes en otras. Imaginemos que tal vez necesitamos contar con una única variable textual que contenga tanto el nombre del país como el continente al que pertenece. Para esto recurrimos a la función unite():

datos <- unite(datos, col = "pais_continente", seleccion, continente, sep = " - ", remove = FALSE)
datos

# A tibble: 80 × 14
   pais_continente       seleccion  continente participaciones    pg    pe    pp
   <chr>                 <chr>      <chr>                <dbl> <dbl> <dbl> <dbl>
 1 Brasil - América      Brasil     América                 22    76    19    19
 2 Alemania - Europa     Alemania   Europa                  20    68    21    23
 3 Argentina - América   Argentina  América                 18    47    17    24
 4 Italia - Europa       Italia     Europa                  18    45    21    17
 5 Francia - Europa      Francia    Europa                  16    39    14    20
 6 Inglaterra - Europa   Inglaterra Europa                  16    32    22    20
 7 España - Europa       España     Europa                  16    31    17    19
 8 Países Bajos - Europa Países Ba… Europa                  11    30    14    11
 9 Uruguay - América     Uruguay    América                 14    25    13    21
10 Bélgica - Europa      Bélgica    Europa                  14    21    10    20
# ℹ 70 more rows
# ℹ 7 more variables: goles_favor <dbl>, goles_contra <dbl>, titulos <dbl>,
#   pj <dbl>, campeon <chr>, puntos <dbl>, dg <dbl>
…
6.6.3 Distribuciones de frecuencias para variables cuantitativas

Cuando se exploran datos de variables cuantitativas, es común realizar tablas de frecuencias agrupando los valores observados en intervalos. Usando la función cut() dentro de mutate() podemos especificar los puntos de corte y generar una nueva columna que informa a qué intervalo pertenece cada observación:

datos <- mutate(datos, intervalos = cut(goles_favor, breaks = seq(0, 250, 50), right = FALSE))

select(datos, seleccion, goles_favor, intervalos)

# A tibble: 80 × 3
   seleccion    goles_favor intervalos
   <chr>              <dbl> <fct>     
 1 Brasil               237 [200,250) 
 2 Alemania             232 [200,250) 
 3 Argentina            152 [150,200) 
 4 Italia               128 [100,150) 
 5 Francia              136 [100,150) 
 6 Inglaterra           104 [100,150) 
 7 España               108 [100,150) 
 8 Países Bajos          96 [50,100)  
 9 Uruguay               89 [50,100)  
10 Bélgica               69 [50,100)  
# ℹ 70 more rows
…
